…
Usemos `map_**` para unir tablas de datos que están almacenadas en múltiples 
archivos csv.


```r
names(paths) <- basename(paths)
specdata_us_vec <- map(paths, ~readr::read_csv(., col_types = "Tddi"), 
    .id = "filename")
specdata_us_vec[[2]]
#> # A tibble: 3,652 x 4
#>    Date                sulfate nitrate    ID
#>    <dttm>                <dbl>   <dbl> <int>
#>  1 2001-01-01 00:00:00      NA      NA     2
#>  2 2001-01-02 00:00:00      NA      NA     2
#>  3 2001-01-03 00:00:00      NA      NA     2
#>  4 2001-01-04 00:00:00      NA      NA     2
#>  5 2001-01-05 00:00:00      NA      NA     2
#>  6 2001-01-06 00:00:00      NA      NA     2
#>  7 2001-01-07 00:00:00      NA      NA     2
#>  8 2001-01-08 00:00:00      NA      NA     2
#>  9 2001-01-09 00:00:00      NA      NA     2
#> 10 2001-01-10 00:00:00      NA      NA     2
#> # ... with 3,642 more rows
…
